%!PS-Adobe-3.0 EPSF-3.0
%%Creator: MATLAB, The MathWorks, Inc. Version 8.0.0.783 (R2012b). Operating System: Darwin 10.8.0 Darwin Kernel Version 10.8.0: Tue Jun  7 16:32:41 PDT 2011; root:xnu-1504.15.3~1/RELEASE_X86_64 x86_64.
%%Title: ./tmp.eps
%%CreationDate: 08/09/2013  15:41:00
%%DocumentNeededFonts: Helvetica
%%DocumentProcessColors: Cyan Magenta Yellow Black
%%LanguageLevel: 2
%%Pages: 1
%%BoundingBox:    41   190   539   587
%%EndComments

%%BeginProlog
% MathWorks dictionary
/MathWorks 160 dict begin
% definition operators
/bdef {bind def} bind def
/ldef {load def} bind def
/xdef {exch def} bdef
/xstore {exch store} bdef
% operator abbreviations
/c  /clip ldef
/cc /concat ldef
/cp /closepath ldef
/gr /grestore ldef
/gs /gsave ldef
/mt /moveto ldef
/np /newpath ldef
/cm /currentmatrix ldef
/sm /setmatrix ldef
/rm /rmoveto ldef
/rl /rlineto ldef
/s {show newpath} bdef
/sc {setcmykcolor} bdef
/sr /setrgbcolor ldef
/sg /setgray ldef
/w /setlinewidth ldef
/j /setlinejoin ldef
/cap /setlinecap ldef
/rc {rectclip} bdef
/rf {rectfill} bdef
% page state control
/pgsv () def
/bpage {/pgsv save def} bdef
/epage {pgsv restore} bdef
/bplot /gsave ldef
/eplot {stroke grestore} bdef
% orientation switch
/portraitMode 0 def /landscapeMode 1 def /rotateMode 2 def
% coordinate system mappings
/dpi2point 0 def
% font control
/FontSize 0 def
/FMS {/FontSize xstore findfont [FontSize 0 0 FontSize neg 0 0]
  makefont setfont} bdef
/reencode {exch dup where {pop load} {pop StandardEncoding} ifelse
  exch dup 3 1 roll findfont dup length dict begin
  { 1 index /FID ne {def}{pop pop} ifelse } forall
  /Encoding exch def currentdict end definefont pop} bdef
/isroman {findfont /CharStrings get /Agrave known} bdef
/FMSR {3 1 roll 1 index dup isroman {reencode} {pop pop} ifelse
  exch FMS} bdef
/csm {1 dpi2point div -1 dpi2point div scale neg translate
 dup landscapeMode eq {pop -90 rotate}
  {rotateMode eq {90 rotate} if} ifelse} bdef
% line types: solid, dotted, dashed, dotdash
/SO { [] 0 setdash } bdef
/DO { [3 dpi2point mul 3 dpi2point mul] 0 setdash } bdef
/DA { [6 dpi2point mul] 0 setdash } bdef
/DD { [2 dpi2point mul 2 dpi2point mul 6 dpi2point mul 2 dpi2point mul] 0 setdash } bdef
% macros for lines and objects
/L {lineto stroke} bdef
/MP {3 1 roll moveto 1 sub {rlineto} repeat} bdef
/AP {{rlineto} repeat} bdef
/PDlw -1 def
/W {/PDlw currentlinewidth def setlinewidth} def
/PP {closepath eofill} bdef
/DP {closepath stroke} bdef
/MR {4 -2 roll moveto dup  0 exch rlineto exch 0 rlineto
  neg 0 exch rlineto closepath} bdef
/FR {MR stroke} bdef
/PR {MR fill} bdef
/L1i {{currentfile picstr readhexstring pop} image} bdef
/tMatrix matrix def
/MakeOval {newpath tMatrix currentmatrix pop translate scale
0 0 1 0 360 arc tMatrix setmatrix} bdef
/FO {MakeOval stroke} bdef
/PO {MakeOval fill} bdef
/PD {currentlinewidth 2 div 0 360 arc fill
   PDlw -1 eq not {PDlw w /PDlw -1 def} if} def
/FA {newpath tMatrix currentmatrix pop translate scale
  0 0 1 5 -2 roll arc tMatrix setmatrix stroke} bdef
/PA {newpath tMatrix currentmatrix pop	translate 0 0 moveto scale
  0 0 1 5 -2 roll arc closepath tMatrix setmatrix fill} bdef
/FAn {newpath tMatrix currentmatrix pop translate scale
  0 0 1 5 -2 roll arcn tMatrix setmatrix stroke} bdef
/PAn {newpath tMatrix currentmatrix pop translate 0 0 moveto scale
  0 0 1 5 -2 roll arcn closepath tMatrix setmatrix fill} bdef
/vradius 0 def /hradius 0 def /lry 0 def
/lrx 0 def /uly 0 def /ulx 0 def /rad 0 def
/MRR {/vradius xdef /hradius xdef /lry xdef /lrx xdef /uly xdef
  /ulx xdef newpath tMatrix currentmatrix pop ulx hradius add uly
  vradius add translate hradius vradius scale 0 0 1 180 270 arc 
  tMatrix setmatrix lrx hradius sub uly vradius add translate
  hradius vradius scale 0 0 1 270 360 arc tMatrix setmatrix
  lrx hradius sub lry vradius sub translate hradius vradius scale
  0 0 1 0 90 arc tMatrix setmatrix ulx hradius add lry vradius sub
  translate hradius vradius scale 0 0 1 90 180 arc tMatrix setmatrix
  closepath} bdef
/FRR {MRR stroke } bdef
/PRR {MRR fill } bdef
/MlrRR {/lry xdef /lrx xdef /uly xdef /ulx xdef /rad lry uly sub 2 div def
  newpath tMatrix currentmatrix pop ulx rad add uly rad add translate
  rad rad scale 0 0 1 90 270 arc tMatrix setmatrix lrx rad sub lry rad
  sub translate rad rad scale 0 0 1 270 90 arc tMatrix setmatrix
  closepath} bdef
/FlrRR {MlrRR stroke } bdef
/PlrRR {MlrRR fill } bdef
/MtbRR {/lry xdef /lrx xdef /uly xdef /ulx xdef /rad lrx ulx sub 2 div def
  newpath tMatrix currentmatrix pop ulx rad add uly rad add translate
  rad rad scale 0 0 1 180 360 arc tMatrix setmatrix lrx rad sub lry rad
  sub translate rad rad scale 0 0 1 0 180 arc tMatrix setmatrix
  closepath} bdef
/FtbRR {MtbRR stroke } bdef
/PtbRR {MtbRR fill } bdef
/stri 6 array def /dtri 6 array def
/smat 6 array def /dmat 6 array def
/tmat1 6 array def /tmat2 6 array def /dif 3 array def
/asub {/ind2 exch def /ind1 exch def dup dup
  ind1 get exch ind2 get sub exch } bdef
/tri_to_matrix {
  2 0 asub 3 1 asub 4 0 asub 5 1 asub
  dup 0 get exch 1 get 7 -1 roll astore } bdef
/compute_transform {
  dmat dtri tri_to_matrix tmat1 invertmatrix 
  smat stri tri_to_matrix tmat2 concatmatrix } bdef
/ds {stri astore pop} bdef
/dt {dtri astore pop} bdef
/db {2 copy /cols xdef /rows xdef mul dup 3 mul string
  currentfile 
  3 index 0 eq {/ASCIIHexDecode filter}
  {/ASCII85Decode filter 3 index 2 eq {/RunLengthDecode filter} if }
  ifelse exch readstring pop
  dup 0 3 index getinterval /rbmap xdef
  dup 2 index dup getinterval /gbmap xdef
  1 index dup 2 mul exch getinterval /bbmap xdef pop pop}bdef
/it {gs np dtri aload pop moveto lineto lineto cp c
  cols rows 8 compute_transform 
  rbmap gbmap bbmap true 3 colorimage gr}bdef
/il {newpath moveto lineto stroke}bdef
currentdict end def
%%EndProlog

%%BeginSetup
MathWorks begin

0 cap

end
%%EndSetup

%%Page: 1 1
%%BeginPageSetup
%%PageBoundingBox:    41   190   539   587
MathWorks begin
bpage
%%EndPageSetup

%%BeginObject: obj1
bplot

/dpi2point 12 def
portraitMode 0312 7272 csm

  185   223  5975  4762 rc
85 dict begin %Colortable dictionary
/c0 { 0.000000 0.000000 0.000000 sr} bdef
/c1 { 1.000000 1.000000 1.000000 sr} bdef
/c2 { 0.900000 0.000000 0.000000 sr} bdef
/c3 { 0.000000 0.820000 0.000000 sr} bdef
/c4 { 0.000000 0.000000 0.800000 sr} bdef
/c5 { 0.910000 0.820000 0.320000 sr} bdef
/c6 { 1.000000 0.260000 0.820000 sr} bdef
/c7 { 0.000000 0.820000 0.820000 sr} bdef
c0
1 j
1 sg
   0    0 6721 5041 rf
6 w
0 4108 5208 0 0 -4108 874 4486 4 MP
PP
-5208 0 0 4108 5208 0 0 -4108 874 4486 5 MP stroke
4 w
DO
SO
6 w
0 sg
 874 4486 mt 6082 4486 L
 874  378 mt 6082  378 L
 874 4486 mt  874  378 L
6082 4486 mt 6082  378 L
 874 4486 mt 6082 4486 L
 874 4486 mt  874  378 L
 874 4486 mt  874 4433 L
 874  378 mt  874  430 L
%%IncludeResource: font Helvetica
/Helvetica /ISOLatin1Encoding 192 FMSR

 821 4698 mt 
(0) s
2149 4486 mt 2149 4433 L
2149  378 mt 2149  430 L
2096 4698 mt 
(6) s
3424 4486 mt 3424 4433 L
3424  378 mt 3424  430 L
3318 4698 mt 
(12) s
4700 4486 mt 4700 4433 L
4700  378 mt 4700  430 L
4594 4698 mt 
(18) s
5975 4486 mt 5975 4433 L
5975  378 mt 5975  430 L
5869 4698 mt 
(24) s
 874 4486 mt  926 4486 L
6082 4486 mt 6029 4486 L
 514 4557 mt 
(-20) s
 874 3972 mt  926 3972 L
6082 3972 mt 6029 3972 L
 733 4043 mt 
(0) s
 874 3459 mt  926 3459 L
6082 3459 mt 6029 3459 L
 626 3530 mt 
(20) s
 874 2945 mt  926 2945 L
6082 2945 mt 6029 2945 L
 626 3016 mt 
(40) s
 874 2432 mt  926 2432 L
6082 2432 mt 6029 2432 L
 626 2503 mt 
(60) s
 874 1918 mt  926 1918 L
6082 1918 mt 6029 1918 L
 626 1989 mt 
(80) s
 874 1405 mt  926 1405 L
6082 1405 mt 6029 1405 L
 519 1476 mt 
(100) s
 874  891 mt  926  891 L
6082  891 mt 6029  891 L
 519  962 mt 
(120) s
 874  378 mt  926  378 L
6082  378 mt 6029  378 L
 519  449 mt 
(140) s
 874 4486 mt 6082 4486 L
 874  378 mt 6082  378 L
 874 4486 mt  874  378 L
6082 4486 mt 6082  378 L
gs 874 378 5209 4109 rc
18 w
/c8 { 0.000000 0.000000 1.000000 sr} bdef
c8
0 2 1299 3917 2 MP stroke
93 0 1252 3917 2 MP stroke
93 0 1252 3919 2 MP stroke
0 69 1724 3698 2 MP stroke
94 0 1677 3698 2 MP stroke
94 0 1677 3767 2 MP stroke
0 180 2149 3306 2 MP stroke
94 0 2102 3306 2 MP stroke
94 0 2102 3486 2 MP stroke
0 309 2574 2458 2 MP stroke
94 0 2527 2458 2 MP stroke
94 0 2527 2767 2 MP stroke
0 304 2999 1656 2 MP stroke
94 0 2952 1656 2 MP stroke
94 0 2952 1960 2 MP stroke
0 434 3424 545 2 MP stroke
93 0 3378 545 2 MP stroke
93 0 3378 979 2 MP stroke
0 538 3850 457 2 MP stroke
93 0 3803 457 2 MP stroke
93 0 3803 995 2 MP stroke
0 1250 4275 461 2 MP stroke
93 0 4228 461 2 MP stroke
93 0 4228 1711 2 MP stroke
0 230 4700 1592 2 MP stroke
94 0 4653 1592 2 MP stroke
94 0 4653 1822 2 MP stroke
0 655 5125 1214 2 MP stroke
94 0 5078 1214 2 MP stroke
94 0 5078 1869 2 MP stroke
0 563 5550 1564 2 MP stroke
94 0 5503 1564 2 MP stroke
94 0 5503 2127 2 MP stroke
0 755 5975 1027 2 MP stroke
94 0 5928 1027 2 MP stroke
94 0 5928 1782 2 MP stroke
gs 1207 634 4861 3377 rc
  36   36 1299 3918 FO
  36   36 1724 3732 FO
  36   36 2149 3396 FO
  36   36 2574 2613 FO
  36   36 2999 1808 FO
  36   36 3424  762 FO
  36   36 3850  726 FO
  36   36 4275 1086 FO
  36   36 4700 1707 FO
  36   36 5125 1541 FO
  36   36 5550 1846 FO
  36   36 5975 1405 FO
gr

/c9 { 0.000000 0.500000 0.000000 sr} bdef
c9
0 6 1299 3969 2 MP stroke
93 0 1252 3969 2 MP stroke
93 0 1252 3975 2 MP stroke
0 6 1724 3969 2 MP stroke
94 0 1677 3969 2 MP stroke
94 0 1677 3975 2 MP stroke
0 4 2149 3868 2 MP stroke
94 0 2102 3868 2 MP stroke
94 0 2102 3872 2 MP stroke
0 335 2574 2953 2 MP stroke
94 0 2527 2953 2 MP stroke
94 0 2527 3288 2 MP stroke
0 1290 2999 1524 2 MP stroke
94 0 2952 1524 2 MP stroke
94 0 2952 2814 2 MP stroke
0 970 3424 756 2 MP stroke
93 0 3378 756 2 MP stroke
93 0 3378 1726 2 MP stroke
0 421 3850 1100 2 MP stroke
93 0 3803 1100 2 MP stroke
93 0 3803 1521 2 MP stroke
0 675 4275 1236 2 MP stroke
93 0 4228 1236 2 MP stroke
93 0 4228 1911 2 MP stroke
0 247 4700 1561 2 MP stroke
94 0 4653 1561 2 MP stroke
94 0 4653 1808 2 MP stroke
0 959 5125 942 2 MP stroke
94 0 5078 942 2 MP stroke
94 0 5078 1901 2 MP stroke
0 667 5550 1176 2 MP stroke
94 0 5503 1176 2 MP stroke
94 0 5503 1843 2 MP stroke
0 699 5975 1055 2 MP stroke
94 0 5928 1055 2 MP stroke
94 0 5928 1754 2 MP stroke
gs 1207 1149 4861 2916 rc
  36   36 1299 3972 FO
  36   36 1724 3972 FO
  36   36 2149 3870 FO
  36   36 2574 3120 FO
  36   36 2999 2169 FO
  36   36 3424 1241 FO
  36   36 3850 1311 FO
  36   36 4275 1574 FO
  36   36 4700 1685 FO
  36   36 5125 1422 FO
  36   36 5550 1510 FO
  36   36 5975 1405 FO
gr

/c10 { 1.000000 0.000000 0.000000 sr} bdef
c10
0 6 1299 3969 2 MP stroke
93 0 1252 3969 2 MP stroke
93 0 1252 3975 2 MP stroke
0 6 1724 3969 2 MP stroke
94 0 1677 3969 2 MP stroke
94 0 1677 3975 2 MP stroke
2149 3964 PD
94 0 2102 3964 2 MP stroke
94 0 2102 3964 2 MP stroke
0 2 2574 3910 2 MP stroke
94 0 2527 3910 2 MP stroke
94 0 2527 3912 2 MP stroke
0 69 2999 3676 2 MP stroke
94 0 2952 3676 2 MP stroke
94 0 2952 3745 2 MP stroke
0 101 3424 3065 2 MP stroke
93 0 3378 3065 2 MP stroke
93 0 3378 3166 2 MP stroke
0 230 3850 2511 2 MP stroke
93 0 3803 2511 2 MP stroke
93 0 3803 2741 2 MP stroke
0 602 4275 2473 2 MP stroke
93 0 4228 2473 2 MP stroke
93 0 4228 3075 2 MP stroke
0 155 4700 2663 2 MP stroke
94 0 4653 2663 2 MP stroke
94 0 4653 2818 2 MP stroke
0 1408 5125 1325 2 MP stroke
94 0 5078 1325 2 MP stroke
94 0 5078 2733 2 MP stroke
0 706 5550 1458 2 MP stroke
94 0 5503 1458 2 MP stroke
94 0 5503 2164 2 MP stroke
0 1373 5975 718 2 MP stroke
94 0 5928 718 2 MP stroke
94 0 5928 2091 2 MP stroke
gs 1207 1313 4861 2752 rc
  36   36 1299 3972 FO
  36   36 1724 3972 FO
  36   36 2149 3964 FO
  36   36 2574 3911 FO
  36   36 2999 3711 FO
  36   36 3424 3115 FO
  36   36 3850 2626 FO
  36   36 4275 2774 FO
  36   36 4700 2740 FO
  36   36 5125 2029 FO
  36   36 5550 1811 FO
  36   36 5975 1405 FO
gr

/c11 { 0.000000 0.750000 0.750000 sr} bdef
c11
0 6 1299 3969 2 MP stroke
93 0 1252 3969 2 MP stroke
93 0 1252 3975 2 MP stroke
0 6 1724 3969 2 MP stroke
94 0 1677 3969 2 MP stroke
94 0 1677 3975 2 MP stroke
0 6 2149 3969 2 MP stroke
94 0 2102 3969 2 MP stroke
94 0 2102 3975 2 MP stroke
0 14 2574 3944 2 MP stroke
94 0 2527 3944 2 MP stroke
94 0 2527 3958 2 MP stroke
0 14 2999 3867 2 MP stroke
94 0 2952 3867 2 MP stroke
94 0 2952 3881 2 MP stroke
0 84 3424 3413 2 MP stroke
93 0 3378 3413 2 MP stroke
93 0 3378 3497 2 MP stroke
0 403 3850 2149 2 MP stroke
93 0 3803 2149 2 MP stroke
93 0 3803 2552 2 MP stroke
0 312 4275 1838 2 MP stroke
93 0 4228 1838 2 MP stroke
93 0 4228 2150 2 MP stroke
0 375 4700 1352 2 MP stroke
94 0 4653 1352 2 MP stroke
94 0 4653 1727 2 MP stroke
0 700 5125 514 2 MP stroke
94 0 5078 514 2 MP stroke
94 0 5078 1214 2 MP stroke
0 549 5550 1433 2 MP stroke
94 0 5503 1433 2 MP stroke
94 0 5503 1982 2 MP stroke
0 289 5975 1260 2 MP stroke
94 0 5928 1260 2 MP stroke
94 0 5928 1549 2 MP stroke
gs 1207 772 4861 3293 rc
  36   36 1299 3972 FO
  36   36 1724 3972 FO
  36   36 2149 3972 FO
  36   36 2574 3951 FO
  36   36 2999 3874 FO
  36   36 3424 3455 FO
  36   36 3850 2350 FO
  36   36 4275 1994 FO
  36   36 4700 1540 FO
  36   36 5125  864 FO
  36   36 5550 1707 FO
  36   36 5975 1405 FO
gr

24 w
c8
212 94 213 90 212 85 213 77 213 67 212 53 213 38 212 17 
213 -7 212 -36 213 -68 213 -106 212 -147 213 -191 212 -238 213 -281 
212 -321 213 -349 213 -356 212 -331 213 -255 212 -107 213 0 212 0 
874 3972 25 MP stroke
c9
212 98 213 96 212 92 213 86 213 77 212 63 213 46 212 22 
213 -9 212 -49 213 -100 213 -162 212 -236 213 -322 212 -411 213 -488 
212 -508 213 -384 213 -55 212 0 213 0 212 0 213 0 212 0 
874 3972 25 MP stroke
c10
212 -65 213 -79 212 -92 213 -107 213 -121 212 -135 213 -150 212 -161 
213 -173 212 -181 213 -185 213 -184 212 -178 213 -162 212 -137 213 -103 
212 -61 213 -21 213 -1 212 0 213 0 212 0 213 0 212 0 
874 3972 25 MP stroke
c11
212 -83 213 -100 212 -118 213 -137 213 -155 212 -173 213 -190 212 -207 
213 -221 212 -231 213 -236 213 -236 212 -227 213 -207 212 -175 213 -132 
212 -78 213 -27 213 -1 212 0 213 0 212 0 213 0 212 0 
874 3972 25 MP stroke
gr

24 w
c11
0 sg
%%IncludeResource: font Helvetica
/Helvetica /ISOLatin1Encoding 216 FMSR

3075 4912 mt 
(Time \(h\)) s
 411 3316 mt  -90 rotate
(Level \(normalized\)) s
90 rotate
%%IncludeResource: font Helvetica
/Helvetica /ISOLatin1Encoding 120 FMSR

 845 4541 mt 
( ) s
6054  432 mt 
( ) s
6 w
1 sg
0 1074 1308 0 0 -1074 4560 4341 4 MP
PP
-1308 0 0 1074 1308 0 0 -1074 4560 4341 5 MP stroke
4 w
DO
SO
6 w
0 sg
4560 4341 mt 5868 4341 L
4560 3267 mt 5868 3267 L
4560 4341 mt 4560 3267 L
5868 4341 mt 5868 3267 L
4560 4341 mt 5868 4341 L
4560 4341 mt 4560 3267 L
4560 4341 mt 5868 4341 L
4560 3267 mt 5868 3267 L
4560 4341 mt 4560 3267 L
5868 4341 mt 5868 3267 L
%%IncludeResource: font Helvetica
/Helvetica /ISOLatin1Encoding 192 FMSR

5028 3485 mt 
(Early RT) s
gs 4560 3267 1309 1075 rc
18 w
6 w
gs 4739 3344 147 147 rc
c8
  36   36 4812 3417 FO
gr

c8
gr

c8
0 sg
5028 3743 mt 
(Late RT) s
gs 4560 3267 1309 1075 rc
18 w
6 w
gs 4739 3602 147 147 rc
c9
  36   36 4812 3675 FO
gr

c9
gr

c9
0 sg
5028 4002 mt 
(2LTR) s
gs 4560 3267 1309 1075 rc
18 w
6 w
gs 4739 3860 147 147 rc
c10
  36   36 4812 3933 FO
gr

c10
gr

c10
0 sg
5028 4260 mt 
(Provirion) s
gs 4560 3267 1309 1075 rc
18 w
6 w
gs 4739 4118 147 147 rc
c11
  36   36 4812 4191 FO
gr

c11
gr

c11

end %%Color Dict

eplot
%%EndObject

epage
end

showpage

%%Trailer
%%EOF
